{
    "explorer.confirmDragAndDrop": false,
    "files.autoSave": "afterDelay",
    "window.titleBarStyle": "custom",
    "editor.fontSize": 13,
    "editor.minimap.enabled": false,
    "macros": {
        "commentLine": [
            "editor.action.commentLine",
            "cursorDown"
        ]
    },
    "editor.wordWrapColumn": 120,
    "workbench.editor.enablePreview": false,
    "files.enableTrash": false,
    "files.watcherExclude": {
        "**/target/**": true,
        "/build/**": true,
        "/pkg/**": true,
        "/blueprint-templates/**": true
    },
    "javascript.updateImportsOnFileMove.enabled": "always",
    "C_Cpp.updateChannel": "Insiders",
    "[cpp]": {
        
    },
    "extensions.ignoreRecommendations": false,
    "javascript.preferences.quoteStyle": "single",
    "files.associations": {
        "**/.i3/config": "i3",
        "**/i3/config": "i3",
    },
    "editor.suggest.showSnippets": false,
    "search.exclude": {
        "**/build/**": true
    },
    "vsicons.dontShowNewVersionMessage": true,
    "rust-analyzer.hoverActions.debug": false,
    "rust-analyzer.inlayHints.typeHints": false,
    "rust-analyzer.inlayHints.chainingHints": false,
    "rust-analyzer.inlayHints.enable": false,
    "rust-analyzer.inlayHints.parameterHints": false,
    "rust-analyzer.lens.debug": false,
    "rust-analyzer.lens.run": false,
    "rust-analyzer.lens.implementations": false,
    "rust-analyzer.procMacro.enable": false,
    "rust-analyzer.files.excludeDirs": [
        "/blueprint-templates/view"
    ],
    "workbench.startupEditor": "none",
    "workbench.editor.untitled.hint": "hidden"
}